{
    "version":  "2.7.2676",
    "extract_dir":  "Default Programs Editor",
    "url":  "https://defaultprogramseditor.com/files/DefaultProgramsEditor.zip",
    "homepage":  "http://defaultprogramseditor.com/",
    "hash":  "d84e0588289a661e796c761cc40ba3cb53a7824d955a8c260e2ac9f74b77b827",
    "shortcuts": [
        [
            "Default Programs Editor.exe",
            "Default Programs Editor"
        ]
    ]
}
